---
http_interactions:
- request:
    method: get
    uri: https://api.themoviedb.org/3/search/movie?api_key=<TMDB_API_KEY>&page=1&query=blue
    body:
      encoding: US-ASCII
      string: ''
    headers:
      User-Agent:
      - Faraday v1.1.0
      Accept-Encoding:
      - gzip;q=1.0,deflate;q=0.6,identity;q=0.3
      Accept:
      - "*/*"
  response:
    status:
      code: 200
      message: OK
    headers:
      Content-Type:
      - application/json;charset=utf-8
      Transfer-Encoding:
      - chunked
      Connection:
      - keep-alive
      Date:
      - Thu, 10 Dec 2020 02:28:57 GMT
      Server:
      - openresty
      Access-Control-Allow-Origin:
      - "*"
      Access-Control-Allow-Methods:
      - GET, HEAD, POST, PUT, DELETE, OPTIONS
      Access-Control-Expose-Headers:
      - ETag, X-RateLimit-Limit, X-RateLimit-Remaining, X-RateLimit-Reset, Retry-After,
        Content-Length, Content-Range
      Cache-Control:
      - public, max-age=600
      Vary:
      - Accept-Encoding
      X-Cache:
      - Hit from cloudfront
      Via:
      - 1.1 ddfa4f13994dc4f9f7e2278881357a0b.cloudfront.net (CloudFront)
      X-Amz-Cf-Pop:
      - ATL56-C4
      X-Amz-Cf-Id:
      - ni7zVaq5UEmkiR5aBQ3uQYfkefTBWge8PebwSur3XV3exVJnihrbow==
      Age:
      - '156'
    body:
      encoding: ASCII-8BIT
      string: '{"page":1,"results":[{"adult":false,"backdrop_path":"/7GWDrjxeBsh5onaYf5XHjIM9BA1.jpg","genre_ids":[28,53],"id":578189,"original_language":"en","original_title":"Black
        and Blue","overview":"A fast-paced action thriller about a rookie cop who
        inadvertently captures the murder of a young drug dealer on her body cam.
        After realizing that the murder was committed by corrupt cops, she teams up
        with the one person from her community who is willing to help her as she tries
        to escape both the criminals out for revenge and the police who are desperate
        to destroy the incriminating footage.","popularity":64.793,"poster_path":"/1cSHEKYYP8Dpi4o1iBVd4U75FYt.jpg","release_date":"2019-10-25","title":"Black
        and Blue","video":false,"vote_average":6.7,"vote_count":413},{"adult":false,"backdrop_path":"/ajS8zeRQGjSyhbXH0d7zcV4oDCd.jpg","genre_ids":[80,18],"id":621191,"original_language":"en","original_title":"Blue
        Story","overview":"Blue Story is a tragic tale of a friendship between Timmy
        and Marco, two young boys from opposing postcodes. Timmy, a shy, smart, naive
        and timid young boy from Deptford, goes to school in Peckham where he strikes
        up a friendship with Marco, a charismatic, streetwise kid from the local area.
        Although from warring postcodes, the two quickly form a firm friendship until
        it is tested and they wind up on rival sides of a street war. Blue Story depicts
        elements of Rapman''s own personal experiences and aspects of his childhood.","popularity":15.752,"poster_path":"/tCkAVKsgCMgLb5r9GP4sVvMK6MR.jpg","release_date":"2019-11-22","title":"Blue
        Story","video":false,"vote_average":7.2,"vote_count":76},{"adult":false,"backdrop_path":"/q7sl4qm8WlogrZ3cJxzuN8WejM1.jpg","genre_ids":[18],"id":160588,"original_language":"en","original_title":"Blue
        Jasmine","overview":"After experiencing a traumatic misfortune, Jasmine French,
        a wealthy woman from New York, moves to San Francisco to live with her foster
        sister Ginger and the firm purpose of getting a new life, but she will be
        haunted by anxiety and memories of the past.","popularity":20.644,"poster_path":"/zLdLiUJfueZBctdv8OvkmGXEHEC.jpg","release_date":"2013-07-25","title":"Blue
        Jasmine","video":false,"vote_average":7,"vote_count":2581},{"adult":false,"backdrop_path":"/4FLZTeVWrp14vm5wMlSJzEghDrd.jpg","genre_ids":[18,10749],"id":46705,"original_language":"en","original_title":"Blue
        Valentine","overview":"Dean and Cindy live a quiet life in a modest neighborhood.
        They appear to have the world at their feet at the outset of the relationship.
        However, his lack of ambition and her retreat into self-absorption cause potentially
        irreversible cracks in their marriage.","popularity":17.133,"poster_path":"/dc8BdKnDY5Iy28KzUGtHIXuqqFK.jpg","release_date":"2010-12-16","title":"Blue
        Valentine","video":false,"vote_average":6.9,"vote_count":2179},{"adult":false,"backdrop_path":"/hIHtyIYgBqHybOgUdoAmveipuiO.jpg","genre_ids":[28,27,878],"id":703745,"original_language":"en","original_title":"Deep
        Blue Sea 3","overview":"Dr. Emma Collins and her team are spending their third
        summer on the island of Little Happy studying the effect of climate change
        on the great white sharks who come to the nearby nursery every year to give
        birth. Along with the last two inhabitants of this former fishing village,
        their peaceful life is disrupted when a \"scientific\" team led by her ex-boyfriend
        and marine biologist Richard show up looking for three bull sharks who we
        soon learn aren''t just any bull sharks.","popularity":38.9,"poster_path":"/bKthjUmxjHjvJK8FktFfQdmwP12.jpg","release_date":"2020-07-28","title":"Deep
        Blue Sea 3","video":false,"vote_average":6.2,"vote_count":283},{"adult":false,"backdrop_path":"/9vEagP8gOhE598dj5kcak1onCOa.jpg","genre_ids":[28,35,80],"id":11001,"original_language":"en","original_title":"Blue
        Streak","overview":"Miles Logan is a jewel thief who just hit the big time
        by stealing a huge diamond. However, after two years in jail, he comes to
        find out that he hid the diamond in a police building that was being built
        at the time of the robbery. In an attempt to regain his diamond, he poses
        as an LAPD detective.","popularity":16.806,"poster_path":"/jek2osBtFhzU6Hjj7yp1egOtbqO.jpg","release_date":"1999-09-17","title":"Blue
        Streak","video":false,"vote_average":6.4,"vote_count":951},{"adult":false,"backdrop_path":"/l104QUm7N05UVcDjggQe3AEhGBk.jpg","genre_ids":[80],"id":4911,"original_language":"en","original_title":"Dark
        Blue","overview":"Set during the Rodney King riots, a robbery homicide investigation
        triggers a series of events that will cause a corrupt LAPD officer to question
        his tactics.","popularity":12.528,"poster_path":"/9RTiJx3oD1s3RAMtjSo7ThZmcxw.jpg","release_date":"2002-12-14","title":"Dark
        Blue","video":false,"vote_average":6.2,"vote_count":174},{"adult":false,"backdrop_path":"/sS4om4v8GbspmlRVXyTikxhTchG.jpg","genre_ids":[28,27,878],"id":8914,"original_language":"en","original_title":"Deep
        Blue Sea","overview":"Researchers on the undersea lab Aquatica have genetically
        altered the brains of captive sharks to develop a cure for Alzheimer''s disease.
        But there''s an unexpected side effect: the sharks got smarter, faster, and
        more dangerous. After a big storm damages their remote research facility,
        they must fight for their lives.","popularity":20.008,"poster_path":"/fyn0zyCI4kIlbDoHH0Hzv09hDC5.jpg","release_date":"1999-07-28","title":"Deep
        Blue Sea","video":false,"vote_average":5.9,"vote_count":1590},{"adult":false,"backdrop_path":"/aiwNrxTMNJMRl30fWeVmSBAyXCm.jpg","genre_ids":[80,9648,53],"id":793,"original_language":"en","original_title":"Blue
        Velvet","overview":"The discovery of a severed human ear found in a field
        leads a young man on an investigation related to a beautiful, mysterious nightclub
        singer and a group of criminals who have kidnapped her child.","popularity":12.886,"poster_path":"/7hlgzJXLgyECS1mk3LSN3E72l5N.jpg","release_date":"1986-09-19","title":"Blue
        Velvet","video":false,"vote_average":7.7,"vote_count":2034},{"adult":false,"backdrop_path":"/khHv13RwbIX0g9x0Sj7j36zofJg.jpg","genre_ids":[878,28,53,80,18],"id":6341,"original_language":"en","original_title":"Blue
        Thunder","overview":"Officer Frank Murphy, an experienced LAPD helicopter
        pilot, is given command of the advanced new \"Blue Thunder\" chopper. But
        he begins to wonder why the LAPD would need a helicopter so powerful and why
        it is such a secret.","popularity":13.726,"poster_path":"/9tdoGRA7FNCuj1zhKDNLWpab9v5.jpg","release_date":"1983-02-05","title":"Blue
        Thunder","video":false,"vote_average":6.1,"vote_count":267},{"adult":false,"backdrop_path":"/3ZohISQDjkS0PtjCJss72MFaBEj.jpg","genre_ids":[53],"id":9491,"original_language":"en","original_title":"Blue
        Steel","overview":"Megan Turner, a female rookie cop, gets involved in an
        armed robbery that goes awry. A witness becomes obsessed with her.","popularity":12.002,"poster_path":"/nZS8nh0q3sUHgSZGIhSnTQio5rR.jpg","release_date":"1990-03-16","title":"Blue
        Steel","video":false,"vote_average":5.8,"vote_count":194},{"adult":false,"backdrop_path":"/mJFRhYGxCDmQ5cMnTmKwqpV0QVa.jpg","genre_ids":[12,18,10749],"id":9266,"original_language":"en","original_title":"Blue
        Crush","overview":"Nothing gets between Anne Marie and her board. Living in
        a beach shack with three roommates, she is up before dawn every morning to
        conquer the waves and count the days until the Pipe Masters competition. Having
        transplanted herself to Hawaii with no one''s blessing but her own, Anne Marie
        finds all she needs in the adrenaline-charged surf scene - until pro quarterback
        Matt Tollman comes along...","popularity":11.999,"poster_path":"/iZSw0JVG0cIFuZoTHuQU3nmGT4k.jpg","release_date":"2002-08-08","title":"Blue
        Crush","video":false,"vote_average":5.9,"vote_count":354},{"adult":false,"backdrop_path":"/we5n0E8gMY1ouGDvIvl7pdaiJvT.jpg","genre_ids":[18],"id":17740,"original_language":"en","original_title":"Powder
        Blue","overview":"On the gritty streets of LA, the destinies of four people
        desperate for connection and redemption are about to collide.","popularity":10.52,"poster_path":"/o1wQcqOoQQF7tt1HijnmQRLjTo4.jpg","release_date":"2009-05-08","title":"Powder
        Blue","video":false,"vote_average":6,"vote_count":134},{"adult":false,"backdrop_path":"/b4NubhZSvBqz2AkJH4O7JkM8XF.jpg","genre_ids":[10749,12,18],"id":5689,"original_language":"en","original_title":"The
        Blue Lagoon","overview":"Two small children and a ship''s cook survive a shipwreck
        and find safety on an idyllic tropical island. Soon, however, the cook dies
        and the young boy and girl are left on their own. Days become years and Emmeline
        and Richard make a home for themselves surrounded by exotic creatures and
        nature''s beauty. But will they ever see civilization again?","popularity":16.578,"poster_path":"/hg57Zr63A96mpIQKHxOjHYqCVhI.jpg","release_date":"1980-07-05","title":"The
        Blue Lagoon","video":false,"vote_average":6.1,"vote_count":1222},{"adult":false,"backdrop_path":"/gwLG5V3u9WgMUodGaquvCuWM7FR.jpg","genre_ids":[18,12,10749,10770],"id":115290,"original_language":"en","original_title":"Blue
        Lagoon: The Awakening","overview":"Two high school students become stranded
        on a tropical island and must rely on each other for survival. They learn
        more about themselves and each other while falling in love.","popularity":20.788,"poster_path":"/ptsBY9Aqo4Mn0V1krI5s8WfFxzW.jpg","release_date":"2014-12-08","title":"Blue
        Lagoon: The Awakening","video":false,"vote_average":6.5,"vote_count":1020},{"adult":false,"backdrop_path":"/gJwq4j1UXpSs4AwKIAuEClSz68n.jpg","genre_ids":[18],"id":19819,"original_language":"en","original_title":"Blue
        Chips","overview":"Pete Bell, a college basketball coach is under a lot of
        pressure. His team isn''t winning and he cannot attract new players. The stars
        of the future are secretly being paid by boosters. This practice is forbidden
        in the college game, but Pete is desperate and has pressures from all around.","popularity":9.945,"poster_path":"/tO71i4Ob64tchCRBB5MoqonPKAF.jpg","release_date":"1994-02-18","title":"Blue
        Chips","video":false,"vote_average":6,"vote_count":104},{"adult":false,"backdrop_path":"/qjXyAWVOYp8t6x22OtTTz6misK4.jpg","genre_ids":[80,18,53],"id":158739,"original_language":"en","original_title":"Blue
        Caprice","overview":"A narrative feature film inspired by the events known
        as the Beltway sniper attacks.","popularity":9.826,"poster_path":"/PA09WH9qd69YJFoY1oNrHRw6cz.jpg","release_date":"2013-09-12","title":"Blue
        Caprice","video":false,"vote_average":5.9,"vote_count":81},{"adult":false,"backdrop_path":"/AcEBzrNmY60gJplQnp3tYw33vu1.jpg","genre_ids":[80,53],"id":188166,"original_language":"en","original_title":"Blue
        Ruin","overview":"When the quiet life of a beach bum is upended by dreadful
        news, he sets off for his childhood home to carry out an act of vengeance.
        However, he proves an inept assassin and finds himself in a brutal fight to
        protect his estranged family.","popularity":11.016,"poster_path":"/q0itEsso2drJXqH9kfdidxIT5dF.jpg","release_date":"2013-09-09","title":"Blue
        Ruin","video":false,"vote_average":6.8,"vote_count":977},{"adult":false,"backdrop_path":null,"genre_ids":[18],"id":476656,"original_language":"en","original_title":"Elizabeth
        Blue","overview":"A young woman, recently released from a mental hospital,
        is coping with ongoing episodes of schizophrenia.","popularity":12.72,"poster_path":"/jyUOB2lRvrY0q9Fi97ilZPM4Zsa.jpg","release_date":"2017-09-22","title":"Elizabeth
        Blue","video":false,"vote_average":6,"vote_count":3},{"adult":false,"backdrop_path":null,"genre_ids":[18],"id":94794,"original_language":"en","original_title":"Blue","overview":"Against
        a plain, unchanging blue screen, a densely interwoven soundtrack of voices,
        sound effects and music attempt to convey a portrait of Derek Jarman''s experiences
        with AIDS, both literally and allegorically, together with an exploration
        of the meanings associated with the colour blue.","popularity":5.753,"poster_path":"/wQffxzw30Ng8kZ0wJVTPUYRHqrm.jpg","release_date":"1993-08-19","title":"Blue","video":false,"vote_average":7,"vote_count":37}],"total_pages":127,"total_results":2536}'
  recorded_at: Thu, 10 Dec 2020 02:31:33 GMT
- request:
    method: get
    uri: https://api.themoviedb.org/3/search/movie?api_key=<TMDB_API_KEY>&page=2&query=blue
    body:
      encoding: US-ASCII
      string: ''
    headers:
      User-Agent:
      - Faraday v1.1.0
      Accept-Encoding:
      - gzip;q=1.0,deflate;q=0.6,identity;q=0.3
      Accept:
      - "*/*"
  response:
    status:
      code: 200
      message: OK
    headers:
      Content-Type:
      - application/json;charset=utf-8
      Transfer-Encoding:
      - chunked
      Connection:
      - keep-alive
      Date:
      - Thu, 10 Dec 2020 02:28:57 GMT
      Server:
      - openresty
      Access-Control-Allow-Origin:
      - "*"
      Access-Control-Allow-Methods:
      - GET, HEAD, POST, PUT, DELETE, OPTIONS
      Access-Control-Expose-Headers:
      - ETag, X-RateLimit-Limit, X-RateLimit-Remaining, X-RateLimit-Reset, Retry-After,
        Content-Length, Content-Range
      Cache-Control:
      - public, max-age=600
      Vary:
      - Accept-Encoding
      X-Cache:
      - Hit from cloudfront
      Via:
      - 1.1 0115ffbe001adcf094041056ca2cf558.cloudfront.net (CloudFront)
      X-Amz-Cf-Pop:
      - ATL56-C4
      X-Amz-Cf-Id:
      - c3FZqIaPPGinu54-dsKQ_hsvy4i4oxPdhxoV6dcm8aRXAFfPl2W6Pg==
      Age:
      - '156'
    body:
      encoding: ASCII-8BIT
      string: '{"page":2,"results":[{"adult":false,"backdrop_path":"/xjenQamrkIiKWlfBviOnL5j7E34.jpg","genre_ids":[35,10402],"id":18228,"original_language":"en","original_title":"Blue
        Hawaii","overview":"Chad Gates has just been discharged from the Army, and
        is happy to be back in Hawaii with his surf-board, his beach buddies and his
        girlfriend.","popularity":9.151,"poster_path":"/4kYgVtcCdeeZh40jiFlnYQF3RUv.jpg","release_date":"1961-11-22","title":"Blue
        Hawaii","video":false,"vote_average":5.6,"vote_count":76},{"adult":false,"backdrop_path":"/5UKLqsKJIhouJPVr8AQSTuh7S4n.jpg","genre_ids":[28,27,878],"id":492336,"original_language":"en","original_title":"Deep
        Blue Sea 2","overview":"When shark conservationist Dr. Misty Calhoun is invited
        to consult on a top-secret project run by pharmaceutical billionaire Carl
        Durant, she is shocked to learn that the company is using unpredictable and
        highly aggressive bull sharks as its test subjects, which soon break loose
        and cause havoc.","popularity":22.733,"poster_path":"/xqjAHXMJLORx9vVsCTJ6ZPJcr3D.jpg","release_date":"2018-04-17","title":"Deep
        Blue Sea 2","video":false,"vote_average":5.1,"vote_count":353},{"adult":false,"backdrop_path":"/tPdfPUdv6cZ1i0NC8SAZbDky77n.jpg","genre_ids":[35,80,10749],"id":10154,"original_language":"en","original_title":"Mickey
        Blue Eyes","overview":"An English auctioneer proposes to the daughter of a
        mafia kingpin, only to realize that certain \"favors\" would be asked of him.","popularity":11.901,"poster_path":"/gEnKsStQ27P0KCCIGtkYwvFQ0RX.jpg","release_date":"1999-08-16","title":"Mickey
        Blue Eyes","video":false,"vote_average":5.6,"vote_count":356},{"adult":false,"backdrop_path":"/3Tl5pawYSvqDVgwFf47qJz20Far.jpg","genre_ids":[18],"id":408508,"original_language":"en","original_title":"Blue
        Jay","overview":"Meeting by chance when they return to their tiny California
        hometown, two former high-school sweethearts reflect on their shared past.","popularity":10.4,"poster_path":"/8Ov2IhfW3vKCpcLoQ5NpnNqqG7p.jpg","release_date":"2016-10-07","title":"Blue
        Jay","video":false,"vote_average":6.9,"vote_count":266},{"adult":false,"backdrop_path":"/uvQdIu8yb3wi093DJB7LxWedgJy.jpg","genre_ids":[37,28,18],"id":14384,"original_language":"en","original_title":"Soldier
        Blue","overview":"After a cavalry group is massacred by the Cheyenne, only
        two survivors remain: Honus, a naive private devoted to his duty, and Cresta,
        a young woman who had lived with the Cheyenne two years and whose sympathies
        lie more with them than with the US government. Together, they must try to
        reach the cavalry''s main base camp. As they travel onward, Honus is torn
        between his growing affection for Cresta.","popularity":8.361,"poster_path":"/2fRfVQpdrjAhvxwytG0scOqdQOJ.jpg","release_date":"1970-08-12","title":"Soldier
        Blue","video":false,"vote_average":6.9,"vote_count":106},{"adult":false,"backdrop_path":"/wktPe3EVo3tA3LhOrEEG8xpEhkd.jpg","genre_ids":[28,53,12,80],"id":11968,"original_language":"en","original_title":"Into
        the Blue","overview":"When they take some friends on an extreme sport adventure,
        the last thing Jared and Sam expect to see below the shark-infested waters
        is a legendary pirate ship rumored to contain millions of dollars in gold.
        But their good fortune is short-lived, as a ruthless gang of criminals gets
        word of what they have uncovered.","popularity":11.578,"poster_path":"/qMqxpRlPwSOIL1t1vtPj8WE8tPj.jpg","release_date":"2005-09-30","title":"Into
        the Blue","video":false,"vote_average":5.8,"vote_count":1048},{"adult":false,"backdrop_path":"/qWRONAReBMtFa5HMzjO8IQnlvE2.jpg","genre_ids":[28,80,18],"id":750471,"original_language":"en","original_title":"Blue
        Ridge","overview":".A murder in a sleepy town at the heart of the Blue Ridge
        Mountains shocks the community and refuels a longtime feud between two families.","popularity":5.786,"poster_path":"/gF8zQR8nE3dKDv5DCabKWmWMZcb.jpg","release_date":"2020-10-20","title":"Blue
        Ridge","video":false,"vote_average":7.5,"vote_count":2},{"adult":false,"backdrop_path":"/fhC824Ea1uCxHoBdu7nRFT5qMb0.jpg","genre_ids":[12,18],"id":58443,"original_language":"en","original_title":"Blue
        Crush 2","overview":"Haunted by the memory of her deceased mother, Dana leaves
        Malibu behind and heads to South Africa to fulfill her mother''s dream of
        surfing Jefferys Bay.","popularity":10.324,"poster_path":"/zSwELTIawuuaknMSsmWBXb0avp8.jpg","release_date":"2011-06-07","title":"Blue
        Crush 2","video":false,"vote_average":5.9,"vote_count":79},{"adult":false,"backdrop_path":"/tbx3tN8d97n4VjgpN3Gon0azGRh.jpg","genre_ids":[14,18],"id":455974,"original_language":"en","original_title":"Blue
        My Mind","overview":"15-year-old Mia faces an overwhelming transformation
        which puts her entire existence into question. Her body is changing radically,
        and despite desperate attempts to halt the process, Mia is soon forced to
        accept that nature is far more powerful than she is.","popularity":9.517,"poster_path":"/ybepnyYmWhP7cp3AMDDCEnHMc2z.jpg","release_date":"2017-10-02","title":"Blue
        My Mind","video":false,"vote_average":6.9,"vote_count":134},{"adult":false,"backdrop_path":"/mcFAhNqy9N2EkHAHcPOUfEEvomJ.jpg","genre_ids":[18,10749],"id":57834,"original_language":"en","original_title":"Blue
        Sky","overview":"Hank Marshall is a tough, square-jawed, straitlaced Army
        engineer and nuclear science expert, assigned to help conduct weapons-testing
        in 1950''s America. Hank has become a thorn in the side of the Army, though,
        for a couple of very different reasons. He is an outspoken opponent of atmospheric
        testing, though his superiors hold contrary views and want to squelch his
        concerns...and his reports. The other problem is his wife, Carly. She is voluptuous
        and volatile, wreaking havoc in his personal life and stirring up intrigue
        at each new Army base.","popularity":6.986,"poster_path":"/zG40OnO4Y98lo1iDHyFo5TaZyP1.jpg","release_date":"1994-09-16","title":"Blue
        Sky","video":false,"vote_average":6.2,"vote_count":79},{"adult":false,"backdrop_path":"/qaeYzsEPNodAB2rCA01RhHGRcI2.jpg","genre_ids":[28,35],"id":16384,"original_language":"en","original_title":"My
        Blue Heaven","overview":"FBI agent Barney Coopersmith is assigned to protect
        former Mafia figure turned informant Vincent Antonelli. In the witness protection
        program one is supposed to keep a low profile, but that is something that
        Antonelli has trouble doing. Coopersmith certainly has his hands full keeping
        Antonelli away from the Mafia hitmen who want to stop him testifying, not
        to mention the nightclubs...","popularity":10.436,"poster_path":"/4rTJLIBocmu1WjadfcZL2nsivZd.jpg","release_date":"1990-08-17","title":"My
        Blue Heaven","video":false,"vote_average":6,"vote_count":139},{"adult":false,"backdrop_path":"/rtdGOcCW1vJYxk6uxk2VUV4Z0Q3.jpg","genre_ids":[99],"id":11019,"original_language":"en","original_title":"Deep
        Blue","overview":"Deep Blue is a major documentary feature film shot by the
        BBC Natural History Unit. An epic cinematic rollercoaster ride for all ages,
        Deep Blue uses amazing footage to tell us the story of our oceans and the
        life they support.","popularity":6.381,"poster_path":"/lzKirFeKspU0PktaX5BfdhSofcT.jpg","release_date":"2003-05-18","title":"Deep
        Blue","video":false,"vote_average":6.6,"vote_count":48},{"adult":false,"backdrop_path":null,"genre_ids":[12,28,53],"id":24595,"original_language":"en","original_title":"Blue","overview":"Blue
        is set in the breath taking sun soaked white sand beaches of Bahamas. Sagar
        is an excellent deep sea diver who dreams of getting his own new boat someday
        while his friend Aarav is a rich arrogant businessman, whose ego is much larger
        than the big boats that he owns. The conflict between these two sparring friends
        is the conflict between the rich & the poor, Moral & Immoral, and greed &
        honor.","popularity":4.301,"poster_path":"/g9bpZSbBRRfbx86s61lgormparP.jpg","release_date":"2009-10-16","title":"Blue","video":false,"vote_average":3.7,"vote_count":27},{"adult":false,"backdrop_path":null,"genre_ids":[99],"id":286407,"original_language":"en","original_title":"Mission
        Blue","overview":"Feature documentary about legendary oceanographer, marine
        biologist, environmentalist and National Geographic Explorer-in-Residence
        Sylvia Earle, and her campaign to create a global network of protected marine
        sanctuaries","popularity":5.8,"poster_path":"/ezTUE6fWKG0iBfYC73rlXreAXao.jpg","release_date":"2014-01-30","title":"Mission
        Blue","video":false,"vote_average":7.6,"vote_count":28},{"adult":false,"backdrop_path":"/qVcL6rYhWxayMPBHx2OBnntzTbU.jpg","genre_ids":[80,18],"id":14839,"original_language":"en","original_title":"Blue
        Collar","overview":"Fed up with mistreatment at the hands of both management
        and union brass, and coupled with financial hardships on each man''s end,
        three auto assembly line workers hatch a plan to rob a safe at union headquarters.","popularity":5.863,"poster_path":"/7WBBcgzESyX1qEq9x7tg22dlORL.jpg","release_date":"1978-02-10","title":"Blue
        Collar","video":false,"vote_average":7.6,"vote_count":80},{"adult":false,"backdrop_path":"/ksM0AptwGeicTCgwkfd6LvUIFSv.jpg","genre_ids":[12,18],"id":13888,"original_language":"en","original_title":"Return
        to the Blue Lagoon","overview":"In this sequel to the 1980 classic, two children
        are stranded on a beautiful island in the South Pacific. With no adults to
        guide them, the two make a simple life together and eventually become tanned
        teenagers in love.","popularity":17.024,"poster_path":"/jhUTLuPgc3Qcvr5xtji8oiWSfYy.jpg","release_date":"1991-08-02","title":"Return
        to the Blue Lagoon","video":false,"vote_average":5.8,"vote_count":517},{"adult":false,"backdrop_path":"/4nQMxOfOYP4cYI69XRt9Gm1jA2E.jpg","genre_ids":[16,10749],"id":200481,"original_language":"en","original_title":"The
        Blue Umbrella","overview":"It is just another evening commute until the rain
        starts to fall, and the city comes alive to the sound of dripping rain pipes,
        whistling awnings and gurgling gutters.","popularity":11.364,"poster_path":"/733mPs3eaPOKhU2V3I5LVsqUgrt.jpg","release_date":"2013-02-12","title":"The
        Blue Umbrella","video":false,"vote_average":7.6,"vote_count":356},{"adult":false,"backdrop_path":"/6fBa3IUOPshQYXK3Vip1cGLhQ2V.jpg","genre_ids":[18,53,27],"id":41827,"original_language":"en","original_title":"Red
        White & Blue","overview":"A woman attracts the attention of a psychotic former
        Army interrogator and an emotionally fragile young man caring for his ailing
        mother.","popularity":6.541,"poster_path":"/wNCsRpkp3lq5qsLFYArjiby1SQN.jpg","release_date":"2010-10-08","title":"Red
        White & Blue","video":false,"vote_average":6.3,"vote_count":77},{"adult":false,"backdrop_path":null,"genre_ids":[28,35,12],"id":631969,"original_language":"en","original_title":"Kingsman:
        The Blue Blood","overview":"The upcoming fourth installment in the Kingsman
        film franchise","popularity":9.12,"poster_path":"/19VTf0swr9cCmBjbQ19yjfLU3CS.jpg","release_date":"","title":"Kingsman:
        The Blue Blood","video":false,"vote_average":0,"vote_count":0},{"adult":false,"backdrop_path":"/ywLZ2SMqyE6pLWLfA2LI5pV4Fdx.jpg","genre_ids":[18,10402],"id":327528,"original_language":"en","original_title":"Born
        to Be Blue","overview":"Jazz legend Chet Baker finds love and redemption when
        he stars in a movie about his own troubled life to mount a comeback.","popularity":12.301,"poster_path":"/iEdh2CkSyDXBTAPlNS6uLF9yTTH.jpg","release_date":"2015-09-13","title":"Born
        to Be Blue","video":false,"vote_average":6.7,"vote_count":139}],"total_pages":127,"total_results":2536}'
  recorded_at: Thu, 10 Dec 2020 02:31:33 GMT
recorded_with: VCR 6.0.0
